ExploreJuncTable
…
Ok, at least in these two control samples, but not in any of the IRE-KO samples I can see some splice junctions of a 26nt non-canonical intron. Cool.

Now let’s check fraction junc reads derived from non-spliceosomal introns (as determined by GT-AG or AT-AC, or GC-AG motifs at intron boundaries).

dat %>%
  count(splice_site) %>%
  arrange(desc(n))

# A tibble: 257 x 2
   splice_site       n
   <chr>         <int>
 1 GT-AG       1058938
 2 CT-AC         68400
 3 GC-AG         15753
 4 AA-TT         12739
 5 TT-AA         11214
 6 AA-CA         11116
 7 TT-TT          9783
 8 AA-TA          8981
 9 AT-TT          8653
10 AA-AA          8459
# … with 247 more rows
…
